<svg width="65" height="75" viewBox="0 0 65 75" fill="none" xmlns="http://www.w3.org/2000/svg">
<path d="M7.52405 23.0801L32.5 8.66025L57.476 23.0801V51.9199L32.5 66.3397L7.52405 51.9199V23.0801Z" fill="#0069B4" stroke="#F5C67E" stroke-width="15"/>
</svg>
